module github.com/AlmasOrazgaliev/pac

go 1.20

require (
	github.com/KyleBanks/depth v1.2.1 // indirect
	github.com/ajg/form v1.5.1 // indirect
	github.com/armon/go-radix v1.0.0 // indirect
	github.com/bytedance/sonic v1.10.0 // indirect
	github.com/chenzhuoyu/base64x v0.0.0-20230717121745-296ad89f973d // indirect
	github.com/chenzhuoyu/iasm v0.9.0 // indirect
	github.com/cpuguy83/go-md2man/v2 v2.0.2 // indirect
	github.com/elastic/go-licenser v0.3.1 // indirect
	github.com/elastic/go-sysinfo v1.1.1 // indirect
	github.com/elastic/go-windows v1.0.0 // indirect
	github.com/gabriel-vasile/mimetype v1.4.2 // indirect
	github.com/gin-contrib/cors v1.4.0 // indirect
	github.com/gin-contrib/sse v0.1.0 // indirect
	github.com/gin-contrib/timeout v0.0.3 // indirect
	github.com/gin-gonic/gin v1.9.1 // indirect
	github.com/go-chi/chi/v5 v5.0.10 // indirect
	github.com/go-chi/render v1.0.3 // indirect
	github.com/go-openapi/jsonpointer v0.20.0 // indirect
	github.com/go-openapi/jsonreference v0.20.2 // indirect
	github.com/go-openapi/spec v0.20.9 // indirect
	github.com/go-openapi/swag v0.22.4 // indirect
	github.com/go-playground/locales v0.14.1 // indirect
	github.com/go-playground/universal-translator v0.18.1 // indirect
	github.com/go-playground/validator/v10 v10.15.0 // indirect
	github.com/goccy/go-json v0.10.2 // indirect
	github.com/golang/protobuf v1.5.3 // indirect
	github.com/google/uuid v1.3.0 // indirect
	github.com/jackc/pgpassfile v1.0.0 // indirect
	github.com/jackc/pgservicefile v0.0.0-20221227161230-091c0ba34f0a // indirect
	github.com/jackc/pgx/v5 v5.3.1 // indirect
	github.com/jcchavezs/porto v0.1.0 // indirect
	github.com/jinzhu/inflection v1.0.0 // indirect
	github.com/jinzhu/now v1.1.5 // indirect
	github.com/joeshaw/multierror v0.0.0-20140124173710-69b34d4ec901 // indirect
	github.com/joho/godotenv v1.5.1 // indirect
	github.com/josharian/intern v1.0.0 // indirect
	github.com/json-iterator/go v1.1.12 // indirect
	github.com/kelseyhightower/envconfig v1.4.0 // indirect
	github.com/klauspost/cpuid/v2 v2.2.5 // indirect
	github.com/leodido/go-urn v1.2.4 // indirect
	github.com/lib/pq v1.10.9 // indirect
	github.com/mailru/easyjson v0.7.7 // indirect
	github.com/mattn/go-isatty v0.0.19 // indirect
	github.com/mattn/go-sqlite3 v1.14.17 // indirect
	github.com/modern-go/concurrent v0.0.0-20180306012644-bacd9c7ef1dd // indirect
	github.com/modern-go/reflect2 v1.0.2 // indirect
	github.com/pelletier/go-toml/v2 v2.0.9 // indirect
	github.com/pkg/errors v0.8.1 // indirect
	github.com/prometheus/procfs v0.0.0-20190425082905-87a4384529e0 // indirect
	github.com/russross/blackfriday/v2 v2.1.0 // indirect
	github.com/santhosh-tekuri/jsonschema v1.2.4 // indirect
	github.com/shurcooL/sanitized_anchor_name v1.0.0 // indirect
	github.com/swaggo/files v1.0.1 // indirect
	github.com/swaggo/files/v2 v2.0.0 // indirect
	github.com/swaggo/gin-swagger v1.6.0 // indirect
	github.com/swaggo/http-swagger/v2 v2.0.1 // indirect
	github.com/swaggo/swag v1.16.1 // indirect
	github.com/twitchyliquid64/golang-asm v0.15.1 // indirect
	github.com/ugorji/go/codec v1.2.11 // indirect
	github.com/urfave/cli/v2 v2.25.7 // indirect
	github.com/xrash/smetrics v0.0.0-20201216005158-039620a65673 // indirect
	go.elastic.co/apm v1.15.0 // indirect
	go.elastic.co/apm/module/apmzap v1.15.0 // indirect
	go.elastic.co/fastjson v1.1.0 // indirect
	go.uber.org/multierr v1.10.0 // indirect
	go.uber.org/zap v1.25.0 // indirect
	golang.org/x/arch v0.4.0 // indirect
	golang.org/x/crypto v0.12.0 // indirect
	golang.org/x/lint v0.0.0-20201208152925-83fdc39ff7b5 // indirect
	golang.org/x/mod v0.12.0 // indirect
	golang.org/x/net v0.14.0 // indirect
	golang.org/x/sys v0.11.0 // indirect
	golang.org/x/text v0.12.0 // indirect
	golang.org/x/tools v0.12.0 // indirect
	google.golang.org/genproto/googleapis/rpc v0.0.0-20230525234030-28d5490b6b19 // indirect
	google.golang.org/grpc v1.57.0 // indirect
	google.golang.org/protobuf v1.31.0 // indirect
	gopkg.in/yaml.v2 v2.4.0 // indirect
	gopkg.in/yaml.v3 v3.0.1 // indirect
	gorm.io/driver/postgres v1.5.2 // indirect
	gorm.io/driver/sqlite v1.5.3 // indirect
	gorm.io/gorm v1.25.3 // indirect
	howett.net/plist v0.0.0-20181124034731-591f970eefbb // indirect
	sigs.k8s.io/yaml v1.3.0 // indirect
)
